Business-Forecasting.knit
…
Tsibble dataframe for interpolated missing dates and their respective number of applicants is given as zero

seg_1a<-subset(train_2,train_2$segment == 1)
seg_1a$segment<-NULL

seg_2a<-subset(train_2,train_2$segment == 2)
seg_2a$segment<-NULL
seg_1_ts <- as_tsibble(seg_1a,index = application_date)
seg_2_ts <- as_tsibble(seg_2a,index = application_date)
seg_1_ts<-fill_gaps(seg_1_ts)
seg_1_ts<-seg_1_ts %>% replace_na(list(No_cases = 0))
seg_1_ts

## # A tsibble: 796 x 2 [1D]
##    application_date No_cases
##    <date>              <dbl>
##  1 2017-04-01          3.60 
##  2 2017-04-02          0    
##  3 2017-04-03          0.506
##  4 2017-04-04          0.277
##  5 2017-04-05         18.4  
##  6 2017-04-06          0    
##  7 2017-04-07         16.2  
##  8 2017-04-08          0    
##  9 2017-04-09          0    
## 10 2017-04-10          0    
## # ... with 786 more rows

seg_2_ts<-seg_2_ts %>% replace_na(list(No_cases = 0))
seg_2_ts

## # A tsibble: 814 x 2 [1D]
##    application_date No_cases
##    <date>              <dbl>
##  1 2017-04-01           56.1
##  2 2017-04-02           37.8
##  3 2017-04-03          126  
##  4 2017-04-04          140. 
##  5 2017-04-05          151. 
##  6 2017-04-06          149. 
##  7 2017-04-07          141. 
##  8 2017-04-08          144. 
##  9 2017-04-09           89.7
## 10 2017-04-10          198. 
## # ... with 804 more rows
…
